ID	PC1	PC2	PC3	PC4	PC5	PC6	PC7	PC8	PC9	PC10	PC11	PC12	PC13	PC14	PC15	PC16	PC17	PC18	PC19	PC20	Predicted class
ID1	Q4	Q2	Q4	Q3	Q4	Q1	Q3	Q3	Q2	Q3	Q2	Q4	Q4	Q4	Q4	Q2	Q4	Q1	Q2	Q4	3
ID10	Q2	Q4	Q1	Q4	Q1	Q1	Q3	Q2	Q4	Q1	Q3	Q1	Q4	Q2	Q1	Q3	Q1	Q4	Q3	Q4	2
ID11	Q1	Q2	Q4	Q1	Q3	Q4	Q2	Q1	Q3	Q3	Q1	Q2	Q1	Q3	Q2	Q4	Q3	Q3	Q4	Q1	3
ID12	Q3	Q4	Q4	Q3	Q4	Q2	Q3	Q3	Q2	Q4	Q2	Q3	Q1	Q1	Q3	Q2	Q3	Q1	Q1	Q1	1
ID13	Q4	Q1	Q2	Q4	Q4	Q1	Q4	Q4	Q1	Q1	Q2	Q3	Q1	Q2	Q3	Q3	Q2	Q2	Q3	Q4	3
ID14	Q2	Q4	Q1	Q1	Q2	Q4	Q1	Q1	Q1	Q4	Q1	Q4	Q2	Q4	Q4	Q2	Q2	Q1	Q3	Q1	2
ID15	Q2	Q2	Q3	Q3	Q2	Q3	Q2	Q1	Q3	Q4	Q3	Q3	Q1	Q1	Q1	Q4	Q1	Q2	Q4	Q3	3
ID16	Q4	Q1	Q1	Q1	Q3	Q2	Q4	Q2	Q4	Q2	Q1	Q3	Q3	Q1	Q2	Q1	Q4	Q3	Q3	Q3	3
ID17	Q3	Q2	Q2	Q2	Q2	Q2	Q4	Q3	Q4	Q3	Q4	Q1	Q2	Q4	Q4	Q1	Q3	Q4	Q1	Q3	3
ID18	Q1	Q1	Q1	Q3	Q4	Q4	Q2	Q3	Q4	Q4	Q1	Q4	Q3	Q3	Q4	Q3	Q4	Q4	Q1	Q2	3
ID19	Q3	Q4	Q2	Q3	Q3	Q1	Q2	Q1	Q3	Q3	Q4	Q1	Q1	Q2	Q3	Q3	Q1	Q1	Q1	Q1	2
ID2	Q3	Q3	Q4	Q1	Q1	Q2	Q2	Q2	Q3	Q4	Q4	Q3	Q1	Q2	Q1	Q1	Q1	Q1	Q4	Q2	3
ID20	Q1	Q4	Q4	Q2	Q4	Q4	Q1	Q4	Q4	Q3	Q3	Q4	Q4	Q1	Q3	Q4	Q4	Q1	Q2	Q1	1
ID21	Q2	Q1	Q3	Q2	Q3	Q4	Q1	Q1	Q3	Q1	Q1	Q1	Q2	Q1	Q2	Q1	Q4	Q3	Q2	Q3	1
ID22	Q4	Q2	Q4	Q2	Q4	Q3	Q1	Q2	Q1	Q4	Q3	Q3	Q2	Q4	Q4	Q2	Q2	Q1	Q4	Q3	3
ID23	Q4	Q3	Q4	Q4	Q4	Q1	Q4	Q3	Q2	Q2	Q4	Q4	Q3	Q4	Q4	Q4	Q2	Q2	Q4	Q4	3
ID24	Q4	Q1	Q3	Q4	Q2	Q3	Q1	Q2	Q1	Q1	Q4	Q3	Q1	Q3	Q1	Q3	Q2	Q3	Q3	Q2	1
ID25	Q4	Q1	Q4	Q1	Q4	Q3	Q1	Q3	Q2	Q4	Q4	Q2	Q2	Q2	Q2	Q4	Q1	Q3	Q4	Q4	1
ID26	Q3	Q1	Q4	Q1	Q1	Q3	Q3	Q4	Q1	Q1	Q3	Q4	Q3	Q2	Q4	Q3	Q2	Q1	Q1	Q4	1
ID27	Q2	Q3	Q2	Q2	Q1	Q3	Q2	Q1	Q1	Q2	Q2	Q3	Q3	Q4	Q4	Q1	Q1	Q3	Q4	Q4	3
ID28	Q4	Q2	Q3	Q1	Q2	Q3	Q4	Q3	Q3	Q1	Q1	Q3	Q3	Q2	Q3	Q4	Q3	Q4	Q2	Q3	3
ID29	Q2	Q4	Q4	Q1	Q1	Q4	Q1	Q2	Q2	Q2	Q2	Q2	Q2	Q1	Q2	Q3	Q2	Q4	Q1	Q2	1
ID3	Q1	Q3	Q1	Q2	Q4	Q2	Q2	Q2	Q1	Q4	Q1	Q4	Q3	Q1	Q3	Q1	Q3	Q2	Q4	Q2	2
ID30	Q1	Q2	Q1	Q4	Q3	Q2	Q1	Q2	Q1	Q3	Q3	Q4	Q4	Q4	Q3	Q2	Q4	Q3	Q1	Q1	3
ID31	Q1	Q4	Q2	Q1	Q2	Q2	Q4	Q4	Q2	Q4	Q3	Q3	Q1	Q3	Q4	Q2	Q3	Q1	Q3	Q3	2
ID32	Q2	Q4	Q2	Q4	Q1	Q1	Q4	Q1	Q4	Q1	Q1	Q1	Q4	Q4	Q1	Q4	Q4	Q2	Q2	Q3	2
ID33	Q3	Q1	Q2	Q2	Q3	Q4	Q3	Q3	Q3	Q1	Q3	Q2	Q2	Q1	Q2	Q3	Q2	Q3	Q3	Q3	3
ID34	Q3	Q1	Q2	Q3	Q1	Q2	Q3	Q4	Q3	Q2	Q4	Q1	Q3	Q4	Q2	Q3	Q4	Q4	Q1	Q1	3
ID35	Q3	Q3	Q1	Q3	Q1	Q1	Q4	Q4	Q1	Q2	Q2	Q2	Q1	Q4	Q2	Q3	Q3	Q4	Q2	Q4	2
ID36	Q2	Q4	Q2	Q4	Q2	Q4	Q3	Q2	Q2	Q1	Q4	Q2	Q2	Q2	Q1	Q1	Q2	Q1	Q4	Q3	2
ID37	Q4	Q4	Q1	Q1	Q2	Q1	Q4	Q4	Q4	Q3	Q2	Q3	Q1	Q2	Q1	Q2	Q4	Q2	Q3	Q2	2
ID38	Q3	Q4	Q3	Q3	Q1	Q4	Q2	Q2	Q2	Q3	Q4	Q1	Q2	Q3	Q4	Q4	Q3	Q2	Q3	Q4	1
ID39	Q2	Q2	Q3	Q2	Q2	Q3	Q1	Q1	Q2	Q4	Q3	Q2	Q4	Q3	Q4	Q4	Q1	Q1	Q1	Q2	3
ID4	Q3	Q2	Q2	Q3	Q4	Q3	Q2	Q3	Q4	Q4	Q2	Q4	Q3	Q3	Q4	Q2	Q1	Q2	Q2	Q2	3
ID40	Q2	Q3	Q4	Q4	Q3	Q1	Q4	Q4	Q4	Q2	Q3	Q4	Q2	Q2	Q3	Q3	Q1	Q3	Q4	Q4	3
ID41	Q1	Q1	Q1	Q2	Q3	Q3	Q1	Q1	Q4	Q4	Q1	Q4	Q3	Q4	Q4	Q1	Q3	Q2	Q3	Q1	3
ID42	Q1	Q2	Q1	Q3	Q2	Q1	Q2	Q3	Q4	Q1	Q4	Q1	Q3	Q1	Q2	Q4	Q3	Q4	Q2	Q2	3
ID43	Q3	Q2	Q3	Q4	Q1	Q4	Q2	Q2	Q2	Q2	Q2	Q2	Q1	Q2	Q1	Q1	Q1	Q4	Q2	Q4	3
ID44	Q4	Q3	Q3	Q2	Q4	Q2	Q3	Q3	Q2	Q1	Q4	Q2	Q1	Q1	Q1	Q2	Q2	Q2	Q2	Q4	3
ID45	Q1	Q4	Q2	Q4	Q2	Q4	Q1	Q3	Q1	Q2	Q4	Q1	Q4	Q3	Q1	Q2	Q2	Q3	Q3	Q3	2
ID46	Q3	Q3	Q2	Q1	Q3	Q1	Q4	Q4	Q3	Q3	Q1	Q2	Q2	Q1	Q1	Q1	Q3	Q3	Q3	Q1	3
ID47	Q4	Q3	Q4	Q3	Q2	Q1	Q3	Q4	Q2	Q3	Q2	Q4	Q4	Q3	Q1	Q4	Q1	Q1	Q4	Q4	3
ID48	Q2	Q3	Q4	Q1	Q3	Q3	Q4	Q4	Q3	Q2	Q2	Q2	Q4	Q2	Q3	Q2	Q3	Q4	Q1	Q1	3
ID49	Q2	Q4	Q1	Q4	Q1	Q2	Q4	Q4	Q1	Q1	Q3	Q1	Q3	Q4	Q2	Q3	Q4	Q4	Q4	Q3	2
ID5	Q4	Q1	Q1	Q2	Q3	Q4	Q2	Q1	Q3	Q2	Q3	Q1	Q4	Q3	Q3	Q4	Q4	Q4	Q4	Q2	3
ID6	Q4	Q3	Q3	Q3	Q3	Q4	Q1	Q2	Q1	Q3	Q4	Q1	Q2	Q4	Q3	Q1	Q1	Q2	Q1	Q1	3
ID7	Q1	Q2	Q3	Q4	Q4	Q2	Q3	Q1	Q3	Q3	Q2	Q3	Q4	Q1	Q2	Q1	Q4	Q3	Q2	Q1	3
ID8	Q1	Q1	Q3	Q2	Q1	Q2	Q3	Q4	Q4	Q4	Q1	Q4	Q4	Q3	Q2	Q4	Q4	Q2	Q2	Q2	1
ID9	Q1	Q3	Q3	Q4	Q4	Q3	Q3	Q1	Q4	Q2	Q1	Q2	Q4	Q3	Q3	Q2	Q2	Q4	Q1	Q2	3
